{
	"info": {
		"_postman_id": "809a3e40-3aad-4101-ac26-2d35e62d2c1d",
		"name": "Chat",
		"schema": "https://schema.getpostman.com/json/collection/v2.1.0/collection.json"
	},
	"item": [
		{
			"name": "Traer Usuarios",
			"request": {
				"method": "GET",
				"header": [],
				"url": {
					"raw": "http://127.0.0.1:8050/users",
					"protocol": "http",
					"host": [
						"127",
						"0",
						"0",
						"1"
					],
					"port": "8050",
					"path": [
						"users"
					]
				}
			},
			"response": []
		},
		{
			"name": "Crear Usuario",
			"request": {
				"method": "POST",
				"header": [],
				"body": {
					"mode": "raw",
					"raw": "{\r\n    \"username\":\"rpineda\",\r\n    \"email\":\"rpineda@x-codec.net\",\r\n    \"password\":\"12345\"\r\n}",
					"options": {
						"raw": {
							"language": "json"
						}
					}
				},
				"url": {
					"raw": "http://127.0.0.1:8050/users",
					"protocol": "http",
					"host": [
						"127",
						"0",
						"0",
						"1"
					],
					"port": "8050",
					"path": [
						"users"
					]
				}
			},
			"response": []
		}
	],
	"protocolProfileBehavior": {}
}